<svg version="1.1" id="Capa_1" xmlns="http://www.w3.org/2000/svg" xmlns:xlink="http://www.w3.org/1999/xlink" x="0px" y="0px"
	 width="93.934px" height="93.934px" viewBox="0 0 93.934 93.934" style="enable-background:new 0 0 93.934 93.934;"
	 xml:space="preserve">
<g>
	<path d="M46.967,0C21.028,0,0,21.028,0,46.967c0,25.939,21.028,46.967,46.967,46.967c25.939,0,46.967-21.027,46.967-46.967
		C93.934,21.028,72.906,0,46.967,0z M74.812,53.924H53.924v20.889H40.01V53.924H19.121V40.01H40.01V19.121h13.914V40.01h20.889
		V53.924z" fill="#f2f2f2" />
</g>
</svg>
