<svg id="Layer_5" enable-background="new 0 0 64 64" height="80" width="80" viewBox="0 0 64 64" xmlns="http://www.w3.org/2000/svg">
  <path d="m48 37c-6.065 0-11 4.935-11 11s4.935 11 11 11 11-4.935 11-11-4.935-11-11-11zm0 20c-4.963 0-9-4.038-9-9s4.037-9 9-9 9 4.038 9 9-4.037 9-9 9z" fill="#f2f2f2" />
  <path d="m49 43.184v-2.184h-2v2h-2v10h2v2h2v-2.184c1.161-.414 2-1.514 2-2.816 0-.768-.29-1.469-.766-2 .476-.531.766-1.232.766-2 0-1.302-.839-2.402-2-2.816zm-1 7.816h-1v-2h1c.552 0 1 .449 1 1s-.448 1-1 1zm0-4h-1v-2h1c.552 0 1 .449 1 1s-.448 1-1 1z" fill="#f2f2f2" />
  <path d="m60 1h-56c-1.654 0-3 1.346-3 3v42c0 1.654 1.346 3 3 3h29.042c.008.13.009.259.02.389.667 7.401 6.779 13.245 14.217 13.594.244.012.487.017.729.017 3.878 0 7.527-1.458 10.347-4.147 2.995-2.859 4.645-6.713 4.645-10.853v-44c0-1.654-1.346-3-3-3zm-56 2h56c.552 0 1 .449 1 1v5h-58v-5c0-.551.448-1 1-1zm52.974 54.406c-2.596 2.477-6.006 3.754-9.601 3.579-6.444-.302-11.74-5.365-12.318-11.776-.496-5.508 2.398-10.595 7.374-12.959l.571-.271v-4.979h-36v-2h4.414l6-6h6l6-6h3.172l3 3h7.646l4 15h.768c7.168 0 13 5.832 13 13 0 3.588-1.43 6.928-4.026 9.406zm-8.201-24.386-4.004-15.02h-8.354l-3-3h-4.828l-6 6h-6l-6 6h-3.587v-6h4v-2h-4v-2h6v-2h-6v-2h-2v20h36v1.73c-4.605 2.436-7.596 7.128-7.957 12.27h-29.043c-.552 0-1-.449-1-1v-35h58v29.554c-2.47-4.295-6.992-7.267-12.227-7.534z" fill="#f2f2f2" />
  <path d="m9 5h2v2h-2z" fill="#f2f2f2" />
  <path d="m5 5h2v2h-2z" fill="#f2f2f2" />
  <path d="m13 5h2v2h-2z" fill="#f2f2f2" />
  <path d="m5 45h12v-10h-12zm2-8h8v6h-8z" fill="#f2f2f2" />
  <path d="m31 35h-12v10h12zm-2 8h-8v-6h8z" fill="#f2f2f2" />
  <path d="m48 13h2v2h-2z" fill="#f2f2f2" />
  <path d="m52 13h7v2h-7z" fill="#f2f2f2" />
  <path d="m48 17h2v2h-2z" fill="#f2f2f2" />
  <path d="m52 17h7v2h-7z" fill="#f2f2f2" />
  <path d="m48 21h2v2h-2z" fill="#f2f2f2" />
  <path d="m52 21h7v2h-7z" fill="#f2f2f2" />
</svg>
