<svg version="1.1" id="Capa_1" xmlns="http://www.w3.org/2000/svg" xmlns:xlink="http://www.w3.org/1999/xlink" x="0px" y="0px"
	 width="92.732px" height="92.731px" viewBox="0 0 92.732 92.731" style="enable-background:new 0 0 92.732 92.731;"
	 xml:space="preserve">
<g>
	<g>
		<rect x="1.134" width="90.463" height="14.214" fill="#f2f2f2" />
		<rect x="1.186" y="25.721" width="90.357" height="14.215" fill="#f2f2f2" />
		<rect x="1.134" y="52.795" width="90.463" height="14.215" fill="#f2f2f2" />
		<rect x="1.186" y="78.518" width="90.357" height="14.214" fill="#f2f2f2" />
	</g>
</g>
</svg>
